版本更新记录

[Key烧写工具V1.5]
1. 修复KEY烧写失败时KEY索引仍会递增问题。
2. 增加检测是否已经烧写HDCP KEY。

[Key烧写工具V1.4]
1. 增加设备类型、写入数据校验。
2. 增加擦除功能。

[Key烧写工具V1.3]
1. 修复RK292x的支持问题。

[Key烧写工具V1.2]
1. 增加RK292x的支持。

[Key烧写工具V1.1]
1. 初始版本。